…
    colnames(diamonds)

    ##  [1] "carat"   "cut"     "color"   "clarity" "depth"   "table"   "price"  
    ##  [8] "x"       "y"       "z"

    # We can also use the dplyr func mutate() to make changes to columns in our df. 
    # It creates new columns that are *functions of existing variables*, or modifies (if the assigned name is the same as an existing column) and delete columns (by setting their value to NULL).
    mutate(diamonds, carat_100=carat*100)

    ## # A tibble: 53,940 × 11
    ##    carat cut       color clarity depth table price     x     y     z carat_100
    ##    <dbl> <ord>     <ord> <ord>   <dbl> <dbl> <int> <dbl> <dbl> <dbl>     <dbl>
    ##  1  0.23 Ideal     E     SI2      61.5    55   326  3.95  3.98  2.43        23
    ##  2  0.21 Premium   E     SI1      59.8    61   326  3.89  3.84  2.31        21
    ##  3  0.23 Good      E     VS1      56.9    65   327  4.05  4.07  2.31        23
    ##  4  0.29 Premium   I     VS2      62.4    58   334  4.2   4.23  2.63        29
    ##  5  0.31 Good      J     SI2      63.3    58   335  4.34  4.35  2.75        31
    ##  6  0.24 Very Good J     VVS2     62.8    57   336  3.94  3.96  2.48        24
    ##  7  0.24 Very Good I     VVS1     62.3    57   336  3.95  3.98  2.47        24
    ##  8  0.26 Very Good H     SI1      61.9    55   337  4.07  4.11  2.53        26
    ##  9  0.22 Fair      E     VS2      65.1    61   337  3.87  3.78  2.49        22
    ## 10  0.23 Very Good H     VS1      59.4    61   338  4     4.05  2.39        23
    ## # ℹ 53,930 more rows
…
    # Using pipe
    penguins %>% 
      select(species, island) %>% 
      rename(iSLaNd_NeW=island)

    ## # A tibble: 344 × 2
    ##    species iSLaNd_NeW
    ##    <fct>   <fct>     
    ##  1 Adelie  Torgersen 
    ##  2 Adelie  Torgersen 
    ##  3 Adelie  Torgersen 
    ##  4 Adelie  Torgersen 
    ##  5 Adelie  Torgersen 
    ##  6 Adelie  Torgersen 
    ##  7 Adelie  Torgersen 
    ##  8 Adelie  Torgersen 
    ##  9 Adelie  Torgersen 
    ## 10 Adelie  Torgersen 
    ## # ℹ 334 more rows

    # rename_with() similarly renames columns, but allows a function to be applied the the column names:
    rename_with(penguins, tolower)

    ## # A tibble: 344 × 8
    ##    species island    bill_length_mm bill_depth_mm flipper_length_mm body_mass_g
    ##    <fct>   <fct>              <dbl>         <dbl>             <int>       <int>
    ##  1 Adelie  Torgersen           39.1          18.7               181        3750
    ##  2 Adelie  Torgersen           39.5          17.4               186        3800
    ##  3 Adelie  Torgersen           40.3          18                 195        3250
    ##  4 Adelie  Torgersen           NA            NA                  NA          NA
    ##  5 Adelie  Torgersen           36.7          19.3               193        3450
    ##  6 Adelie  Torgersen           39.3          20.6               190        3650
    ##  7 Adelie  Torgersen           38.9          17.8               181        3625
    ##  8 Adelie  Torgersen           39.2          19.6               195        4675
    ##  9 Adelie  Torgersen           34.1          18.1               193        3475
    ## 10 Adelie  Torgersen           42            20.2               190        4250
    ## # ℹ 334 more rows
    ## # ℹ 2 more variables: sex <fct>, year <int>

    adelie_penguins <- penguins %>% filter(species == "Adelie")
    adelie_penguins

    ## # A tibble: 152 × 8
    ##    species island    bill_length_mm bill_depth_mm flipper_length_mm body_mass_g
    ##    <fct>   <fct>              <dbl>         <dbl>             <int>       <int>
    ##  1 Adelie  Torgersen           39.1          18.7               181        3750
    ##  2 Adelie  Torgersen           39.5          17.4               186        3800
    ##  3 Adelie  Torgersen           40.3          18                 195        3250
    ##  4 Adelie  Torgersen           NA            NA                  NA          NA
    ##  5 Adelie  Torgersen           36.7          19.3               193        3450
    ##  6 Adelie  Torgersen           39.3          20.6               190        3650
    ##  7 Adelie  Torgersen           38.9          17.8               181        3625
    ##  8 Adelie  Torgersen           39.2          19.6               195        4675
    ##  9 Adelie  Torgersen           34.1          18.1               193        3475
    ## 10 Adelie  Torgersen           42            20.2               190        4250
    ## # ℹ 142 more rows
    ## # ℹ 2 more variables: sex <fct>, year <int>

    library(janitor)

    ## 
    ## Attaching package: 'janitor'

    ## The following objects are masked from 'package:stats':
    ## 
    ##     chisq.test, fisher.test

    # Keeps column names consistent
    clean_names(penguins)

    ## # A tibble: 344 × 8
    ##    species island    bill_length_mm bill_depth_mm flipper_length_mm body_mass_g
    ##    <fct>   <fct>              <dbl>         <dbl>             <int>       <int>
    ##  1 Adelie  Torgersen           39.1          18.7               181        3750
    ##  2 Adelie  Torgersen           39.5          17.4               186        3800
    ##  3 Adelie  Torgersen           40.3          18                 195        3250
    ##  4 Adelie  Torgersen           NA            NA                  NA          NA
    ##  5 Adelie  Torgersen           36.7          19.3               193        3450
    ##  6 Adelie  Torgersen           39.3          20.6               190        3650
    ##  7 Adelie  Torgersen           38.9          17.8               181        3625
    ##  8 Adelie  Torgersen           39.2          19.6               195        4675
    ##  9 Adelie  Torgersen           34.1          18.1               193        3475
    ## 10 Adelie  Torgersen           42            20.2               190        4250
    ## # ℹ 334 more rows
    ## # ℹ 2 more variables: sex <fct>, year <int>
…
    ## # A tibble: 5 × 4
    ## # Groups:   island [3]
    ##   island    species   mean_bill_len max_bill_len
    ##   <fct>     <fct>             <dbl>        <dbl>
    ## 1 Biscoe    Adelie             39.0         45.6
    ## 2 Biscoe    Gentoo             47.6         59.6
    ## 3 Dream     Adelie             38.5         44.1
    ## 4 Dream     Chinstrap          48.8         58  
    ## 5 Torgersen Adelie             39.0         46

    penguins %>% mutate(body_mass_kg = body_mass_g/1000, flipper_length_m = flipper_length_mm/1000)

    ## # A tibble: 344 × 10
    ##    species island    bill_length_mm bill_depth_mm flipper_length_mm body_mass_g
    ##    <fct>   <fct>              <dbl>         <dbl>             <int>       <int>
    ##  1 Adelie  Torgersen           39.1          18.7               181        3750
    ##  2 Adelie  Torgersen           39.5          17.4               186        3800
    ##  3 Adelie  Torgersen           40.3          18                 195        3250
    ##  4 Adelie  Torgersen           NA            NA                  NA          NA
    ##  5 Adelie  Torgersen           36.7          19.3               193        3450
    ##  6 Adelie  Torgersen           39.3          20.6               190        3650
    ##  7 Adelie  Torgersen           38.9          17.8               181        3625
    ##  8 Adelie  Torgersen           39.2          19.6               195        4675
    ##  9 Adelie  Torgersen           34.1          18.1               193        3475
    ## 10 Adelie  Torgersen           42            20.2               190        4250
    ## # ℹ 334 more rows
    ## # ℹ 4 more variables: sex <fct>, year <int>, body_mass_kg <dbl>,
    ## #   flipper_length_m <dbl>

    # Separating columns and uniting them (just testing the function,,, i know splitting 'species' doesn't make sense at all QvQ)
    adelie_penguins <- separate(adelie_penguins, species, into=c("sp","ecies"), sep='l') # 'l' gets eaten (but don't worry- we'll get it back right after unite() via the same separator)
    adelie_penguins

    ## # A tibble: 152 × 9
    ##    sp    ecies island bill_length_mm bill_depth_mm flipper_length_mm body_mass_g
    ##    <chr> <chr> <fct>           <dbl>         <dbl>             <int>       <int>
    ##  1 Ade   ie    Torge…           39.1          18.7               181        3750
    ##  2 Ade   ie    Torge…           39.5          17.4               186        3800
    ##  3 Ade   ie    Torge…           40.3          18                 195        3250
    ##  4 Ade   ie    Torge…           NA            NA                  NA          NA
    ##  5 Ade   ie    Torge…           36.7          19.3               193        3450
    ##  6 Ade   ie    Torge…           39.3          20.6               190        3650
    ##  7 Ade   ie    Torge…           38.9          17.8               181        3625
    ##  8 Ade   ie    Torge…           39.2          19.6               195        4675
    ##  9 Ade   ie    Torge…           34.1          18.1               193        3475
    ## 10 Ade   ie    Torge…           42            20.2               190        4250
    ## # ℹ 142 more rows
    ## # ℹ 2 more variables: sex <fct>, year <int>

    # unite() is just in the reverse order
    unite(adelie_penguins, 'species', sp, ecies, sep='l')

    ## # A tibble: 152 × 8
    ##    species island    bill_length_mm bill_depth_mm flipper_length_mm body_mass_g
    ##    <chr>   <fct>              <dbl>         <dbl>             <int>       <int>
    ##  1 Adelie  Torgersen           39.1          18.7               181        3750
    ##  2 Adelie  Torgersen           39.5          17.4               186        3800
    ##  3 Adelie  Torgersen           40.3          18                 195        3250
    ##  4 Adelie  Torgersen           NA            NA                  NA          NA
    ##  5 Adelie  Torgersen           36.7          19.3               193        3450
    ##  6 Adelie  Torgersen           39.3          20.6               190        3650
    ##  7 Adelie  Torgersen           38.9          17.8               181        3625
    ##  8 Adelie  Torgersen           39.2          19.6               195        4675
    ##  9 Adelie  Torgersen           34.1          18.1               193        3475
    ## 10 Adelie  Torgersen           42            20.2               190        4250
    ## # ℹ 142 more rows
    ## # ℹ 2 more variables: sex <fct>, year <int>
…
